…
``` r
relig_income %>%
 pivot_longer(-religion, names_to = "income", values_to = "count")
```

    #> # A tibble: 180 x 3
    #>    religion income             count
    #>    <chr>    <chr>              <dbl>
    #>  1 Agnostic <$10k                 27
    #>  2 Agnostic $10-20k               34
    #>  3 Agnostic $20-30k               60
    #>  4 Agnostic $30-40k               81
    #>  5 Agnostic $40-50k               76
    #>  6 Agnostic $50-75k              137
    #>  7 Agnostic $75-100k             122
    #>  8 Agnostic $100-150k            109
    #>  9 Agnostic >150k                 84
    #> 10 Agnostic Don't know/refused    96
    #> # … with 170 more rows
…
``` r
# Install the {dataedu} package if you don't have it
# devtools::install_github("data-edu/dataedu")
library(dataedu)
```

View the survey data in its original, wide format:

``` r
# Wide format
pre_survey
```

    #> # A tibble: 1,102 x 12
    #>    opdata_username opdata_CourseID Q1Maincellgroup… Q1Maincellgroup…
    #>    <chr>           <chr>                      <dbl>            <dbl>
    #>  1 _80624_1        FrScA-S116-01                  4                4
    #>  2 _80623_1        BioA-S116-01                   4                4
    #>  3 _82588_1        OcnA-S116-03                  NA               NA
    #>  4 _80623_1        AnPhA-S116-01                  4                3
    #>  5 _80624_1        AnPhA-S116-01                 NA               NA
    #>  6 _80624_1        AnPhA-S116-02                  4                2
    #>  7 _80624_1        AnPhA-T116-01                 NA               NA
    #>  8 _80624_1        BioA-S116-01                   5                3
    #>  9 _80624_1        BioA-T116-01                  NA               NA
    #> 10 _80624_1        PhysA-S116-01                  4                4
    #> # … with 1,092 more rows, and 8 more variables: Q1MaincellgroupRow3 <dbl>,
    #> #   Q1MaincellgroupRow4 <dbl>, Q1MaincellgroupRow5 <dbl>,
    #> #   Q1MaincellgroupRow6 <dbl>, Q1MaincellgroupRow7 <dbl>,
    #> #   Q1MaincellgroupRow8 <dbl>, Q1MaincellgroupRow9 <dbl>,
    #> #   Q1MaincellgroupRow10 <dbl>

… and now transform the survey dataset to a long format, where a column
called “question” contains the question names and a column called
“response” contains the corresponding responses:

``` r
# Pivot the dataset from wide to long format
pre_survey %>%
  pivot_longer(cols = Q1MaincellgroupRow1:Q1MaincellgroupRow10,
               names_to = "question",
               values_to = "response")
```

    ## # A tibble: 11,020 x 4
    ##    opdata_username opdata_CourseID question             response
    ##    <chr>           <chr>           <chr>                   <dbl>
    ##  1 _80624_1        FrScA-S116-01   Q1MaincellgroupRow1         4
    ##  2 _80624_1        FrScA-S116-01   Q1MaincellgroupRow2         4
    ##  3 _80624_1        FrScA-S116-01   Q1MaincellgroupRow3         4
    ##  4 _80624_1        FrScA-S116-01   Q1MaincellgroupRow4         1
    ##  5 _80624_1        FrScA-S116-01   Q1MaincellgroupRow5         5
    ##  6 _80624_1        FrScA-S116-01   Q1MaincellgroupRow6         4
    ##  7 _80624_1        FrScA-S116-01   Q1MaincellgroupRow7         1
    ##  8 _80624_1        FrScA-S116-01   Q1MaincellgroupRow8         5
    ##  9 _80624_1        FrScA-S116-01   Q1MaincellgroupRow9         5
    ## 10 _80624_1        FrScA-S116-01   Q1MaincellgroupRow10        5
    ## # … with 11,010 more rows
…
